<?xml version="1.0" encoding="UTF-8" standalone="no"?>
<!-- Created with Inkscape (http://www.inkscape.org/) -->

<svg
   width="89.638191mm"
   height="64.722366mm"
   viewBox="0 0 89.638191 64.722366"
   version="1.1"
   id="svg1267"
   xmlns:xlink="http://www.w3.org/1999/xlink"
   xmlns="http://www.w3.org/2000/svg"
   xmlns:svg="http://www.w3.org/2000/svg">
  <defs
     id="defs1264">
    <linearGradient
       id="SVGID_9_"
       gradientUnits="userSpaceOnUse"
       x1="1.9998"
       x2="333.63651"
       xlink:href="#lg1"
       y1="163.5515"
       y2="163.5515"
       gradientTransform="matrix(0.26458333,0,0,0.26458333,103.68091,155.63753)" />
    <linearGradient
       id="lg1">
      <stop
         offset=".0283"
         stop-color="#8d969c"
         id="stop12" />
      <stop
         offset=".0948"
         stop-color="#bdc7cd"
         id="stop14" />
      <stop
         offset=".1494"
         stop-color="#b7c2c9"
         id="stop16" />
      <stop
         offset=".1938"
         stop-color="#adbac2"
         id="stop18" />
      <stop
         offset=".2711"
         stop-color="#bfcad1"
         id="stop20" />
      <stop
         offset=".3678"
         stop-color="#dbe4e8"
         id="stop22" />
      <stop
         offset=".4088"
         stop-color="#f0fbff"
         id="stop24" />
      <stop
         offset=".4455"
         stop-color="#dee9ee"
         id="stop26" />
      <stop
         offset=".4607"
         stop-color="#d1dce2"
         id="stop28" />
      <stop
         offset=".4877"
         stop-color="#c0cbd1"
         id="stop30" />
      <stop
         offset=".5078"
         stop-color="#bac5cb"
         id="stop32" />
      <stop
         offset=".6365"
         stop-color="#d4dade"
         id="stop34" />
      <stop
         offset=".6938"
         stop-color="#eaeef1"
         id="stop36" />
      <stop
         offset=".7496"
         stop-color="#fcfeff"
         id="stop38" />
      <stop
         offset=".8374"
         stop-color="#b7bfc3"
         id="stop40" />
      <stop
         offset=".8573"
         stop-color="#adb5ba"
         id="stop42" />
      <stop
         offset=".8812"
         stop-color="#a5aeb4"
         id="stop44" />
      <stop
         offset=".9175"
         stop-color="#a8b2b8"
         id="stop46" />
      <stop
         offset=".9541"
         stop-color="#b1bdc4"
         id="stop48" />
      <stop
         offset=".956"
         stop-color="#b2bec5"
         id="stop50" />
    </linearGradient>
    <linearGradient
       id="SVGID_10_"
       gradientUnits="userSpaceOnUse"
       x1="2.2897999"
       x2="338.79279"
       y1="232.96651"
       y2="232.96651"
       gradientTransform="matrix(0.26458333,0,0,0.26458333,103.68091,155.63753)">
      <stop
         offset="0"
         stop-color="#727477"
         id="stop54" />
      <stop
         offset=".0285"
         stop-color="#64666a"
         id="stop56" />
      <stop
         offset=".0678"
         stop-color="#575a5e"
         id="stop58" />
      <stop
         offset=".105"
         stop-color="#53565a"
         id="stop60" />
      <stop
         offset=".1273"
         stop-color="#585b5f"
         id="stop62" />
      <stop
         offset=".1543"
         stop-color="#67686c"
         id="stop64" />
      <stop
         offset=".1613"
         stop-color="#6c6d71"
         id="stop66" />
      <stop
         offset=".3247"
         stop-color="#8f9093"
         id="stop68" />
      <stop
         offset=".509"
         stop-color="#60656c"
         id="stop70" />
      <stop
         offset=".645"
         stop-color="#808c96"
         id="stop72" />
      <stop
         offset=".7521"
         stop-color="#49494d"
         id="stop74" />
      <stop
         offset=".7655"
         stop-color="#55585d"
         id="stop76" />
      <stop
         offset=".7912"
         stop-color="#697078"
         id="stop78" />
      <stop
         offset=".8144"
         stop-color="#757e87"
         id="stop80" />
      <stop
         offset=".8325"
         stop-color="#79838d"
         id="stop82" />
      <stop
         offset=".9199"
         stop-color="#5a5e63"
         id="stop84" />
      <stop
         offset="1"
         stop-color="#403f41"
         id="stop86" />
    </linearGradient>
    <linearGradient
       id="SVGID_11_"
       gradientUnits="userSpaceOnUse"
       x1="13.9435"
       x2="321.69281"
       xlink:href="#lg1"
       y1="55.4725"
       y2="55.4725"
       gradientTransform="matrix(0.26458333,0,0,0.26458333,103.68091,155.63753)" />
  </defs>
  <g
     id="layer1"
     transform="translate(-103.68091,-155.63753)">
    <image
       height="19.542126"
       overflow="visible"
       width="17.914938"
       xlink:href="data:image/png;base64,iVBORw0KGgoAAAANSUhEUgAAAEUAAABLCAYAAAAmh0pZAAAACXBIWXMAAAsSAAALEgHS3X78AAAA GXRFWHRTb2Z0d2FyZQBBZG9iZSBJbWFnZVJlYWR5ccllPAAAC1JJREFUeNrUnOuTFNUVwG8/Zma3 EkwbLUwRSzsV8VFiaJCVwLrsEAHBUqflQ8qqfNjNXwD8Bcv+Bchf4PAhpvxg6IkPImB2BgyQXR4D SgmayGCMCUR2m5CEneme7pxz+97unmHB3X7M48KxZ1a2p/s353XPPbcFktKoXbuhw2Gs2WwqIMRx HNIEcRyXvm4V9873btvPXe+1C0f4u/+VzRuMtK5dTuOkV6/PanA4SNIbJkhqUMSUzqvxF4Ig0KPb +p/Iw/V+XX936qTSV1AAhCmKIpEkiUiyTPA1RSNEB4Om1GwGJgZmpPeV+ciyXBUQBGiJCDdAWbhu EVBcRZ9AmsKSwOC/bFjWBFcTODERXFfpKygr7l9W+9d/6/TiZZRMhgwMDlaWf3+gGOV87xw+hgAm wjYEwKv95lNQW8og1ITwmMlm1SR8FB87t46U+w4KhlAMxX44hmPkixSFO8Q4elzpOyi2bftQuEQd r20ZKaN/ahOtr3wKh+KFG983xvv2widAKCkmQSlqCmpHoC34PmaYr3EtEb33+b7UFJ64CUL875VC IUQNvV/dd5rSaDQ0EGJZFr5GSGZM86m0+JQFIlJPQzlz6a8KgEAhITCx8gqAUKWmwwReqx8en1b6 Bgr4EC0MBAU0pRbTfMrinRFI7xsoACCPPgWFQTFXP/ZoLCjbN61H86u2QiGjfQMFIBQ4FCaJZJ+o LeizueBsuS+gfHTqjIrmE4YC70vJQCGVNvNRjp44rfU8FJji6zjF98TPZhMpCG0dHjJYgckP9SBj PQ/Fdd2C67p+WRHgVPNDmpnU+QGCwTWFaY/e01COnJjBEJkPAUI5kPA1V3holrCQJUrqsZnzWs9C ge9PD0UGPhKtpQIMQ+JVPUnkoveu+QikQCODB4gWgrYND9WS/IjNP19rypJoZGSJZGWZ5DIZMpjL FnpbUwizd09bUikEZTOZUi6bIQO5LBkYAMlmtctfXlV7DsrUqbMtpsO05UAaUDIZ2UAgCAY1JZuV EZTee5oiCIUgqaJwai9seDaVOqr21Eozm5GrVFNABukxU+g5KBgaBSJwX4LvU1uswjGYyx2gmgKS AW2RJSk/O2cqPQOlMlPNAwbFNx1qPkIlTSjgaA0Zi+IQfTyRcH1J7xkoIjUdFoZprUMw8+vXpKop yx98oAYgqgjDC9EiFrQLvQRFp1V2QeS1jlSB8AEgyuHsFieI/751S+k6lJPnPtVAbVW6NMrBiEKJ dGYsFN3yXYeCdhyuiKHG4BS/E0TuW7YMo1t7cljoPhTwJ6gl3iIVXT82htc+Y5LOjXZT1bsK5ezF y2g2mhiYDYIpkc6O9iingF/RuwZF8B0sW870HK3RSSJgQi01FjZGuwYFtGLMAyJyTamue+ZJk3R+ JGpCkaFc/OKKAkA0D4jAIk86c51FjBKv32Bfnd1sqjfm5rSOQ8HcxEuYmFAwotENImhCdGnWL3/S cuhY56FIIo06PJsEqf7siZ/WuqQpAMQxEAYciWXbpG5Z+Y5C+fJv3yiSKOlY/RJ9bZHKpIvDspsl AEHm6w0q9bqlXYpYY4kEBSDkqXaILXKgu1AsY75ukXqDCV2qtfSOQQEABanFdKTaSvXhajehPPrj FSZAKCOQeZDbnsaMdVJTdGo2VFvolN0gPTAARombDwAiDdvWjp8+r6YO5dqNOYw6Clte8MBIHc9i FxwNyzIauCrJIhGTJTtcOYKWjGLLpkv8dR3zRw/+sHz6wkVNYGEauyEHcjkqOVoqzBFZkqmp4eSR NgeyBbNQwzAmfeUHlPsim+GGNatqlelzVTi3hi23rtd3ixPE4pIy9aV+8OzNW1fgw9QQlOJXX//9 KrydwBteFJTQ5oRwFzUbrwGYyOb40ckzu+GwL/wzuMb7t2xcZ6ZiPjf/8z8NzEVtizwluKEJN2bP fegG9sU8RZkEXxjXFj01nwJzmzFJDGWxAOezL/7iZZI275kFswgtrrsOvzD3XiBY3y3d/qL+89vZ yCk6riDA+WrBuamMpuZTIPTmW78BwQAvX6BJnCjQpUy2WaFqs6ZivkfnXgP+TR6B0PMiPJdWz6rR tY1OEHdz4ExTfp04lLrdVOHi0Zn6NwnHUqPR2Cf6xWN6Y8Wh1av2LOUmvrl+46CLFx4Ax/zijThl SjiHB4XVWP5wfFrfPvKckaj5eLWTwHQQzsy5Cyak1wq2cNUbmB/Uye3b80te2gDYJQfNje0eA9Gu fP0PNSqRrcPrqgDDdFr9SiFxnwJhaiyow1Iw5Tnz5ihvHPbENreMLH0bG0Aph4Bw0WM6bCPscMHX 5ROFMt+wqelws2FwSjAj1cMdSwAmUih9ZMVDNYBQpY468EWFmFBKDnXy3gYqTCPeK5/SEoPiOM1d fl7BpHJyGm9C9bJGb8oOUCJntnDuA/75vXpIHgtZUc+3Y9N6AxNLbkL06CyuxrIoKFQj/N2iDoZc 49r1b7UgAWvyLLUcA4rBe+XgS0hkSxxejw/EO+qJQLk+a+rgSFXLstkmBHrBqBGjQW8bBVP+5Ssv Rq7PPvGTR2pwjqrjBE2E8Ho0rgmFUwg0IePox1psKA2rMdbA2gTrnLbAmX5vMFdcIEuMPSnEb5bv Qfa+2fjOFudUbWB2xYLy+ZWrqtWwdA6FgmlYxd/87r383dLrWDeBodmzfTZhdJWzFy9Hzm4LLwwj EIObEBOd7UmMBgUg7JqH/KMe7rNv2vtxr03bwrb5q50vxy4yrX5qJWpKS34R169gd6YT5Cq0Ifm7 evrvCuXP5y4o9XpjvE7rnR4YkPLDDy3HzUij4b08Sa4du9SEXH8rP/yJ5Vd2btuE11YTgt0feNwV CQpkqrtBU/ztKVQsa5KR0Ii3pMGhnE8KCoCo0OccBJoSu0cW16NCQOj+w9//8UR+yVCog20wX+IB qa16/LHy2+9+iOvHit/0R1swxMQ0BbNbXoBiPkCZ+eSzWGDgOt8QBL8BgGfkY0uCcmjq+DiEYNXy HayNNc9JVnlTQyfmfiWxovX61U9XXf70C3rESV08bdG3PG/CdRbDYEDGPzg2rS4aCsxhJmwAYdH9 Oni0as8PraUlPdCKvOj1l1Etgde111/dnuj6MbgUT1toik4BqbFNSBQm/Y2ZAZiJRUF55/0juyF5 8tJ3DsWyJ/1foECk4CiKtaQL0AChGs4tAFDszU4v5zfUAIzBmor4pu/xwyfOqPeE8nbpkIKlxWBr Ck25azs2jxQD4tJoCxhJqqYA5SbVkiBFV5M4ryCI+wMgvJ/mTm0R2zz/boCiNEML1bbtTLZV81kp UmKbBuSbiUMh3pwlNO1PBMqOkaEyljyCKETNaHxquppfEApkqVgemHBaKu3N2s6XthRJh4fTajpU Ehx7hKB1hPbVAJx9d9OUN/kFOcFEbw/pwmiZq7BELqmxbeOzuDmzKAotD5TQPj736d4WKG8dfB/T 3nxbdb38uv5SV5ZDvQdVhb+gRDUFNWQPfxpQSCZOfXKJhn75LeMDnBy9KfDKN3u4QiaXUw8eqUyh Q23blq91AIqKngU/1mUxunL6whQustFnsdCdGyhZ+poLbyLC66XmH94G7O2ip2kGK536TxPj1UT4 vanpi5+vkTFWu/gon9AuTrpUAUkaMFqMg/tB0lC2blxXPPynmQn++Xij5Dubht2Ff8IWfvg8zdMK l0gyRE5H9B+dxv8/Tm7x09RwUhPKUhczMGmbTElhyqEJZ/Q4dkcBPujkFATe6urfs/Hc049TKPsX COiL/dTJV38xnFY3ZDc6GfZ74GD8tnQI1XTc1xjPfGiCxlb9FjwDANmb5hWCCe3lGsz9yd19ivf8 p7BPsW2LNC3/0QJBk6DT9Bf2wzVc0BJ6P/8XYABe6oy0hYhLWQAAAABJRU5ErkJggg=="
       id="image904"
       x="103.68091"
       y="189.04408" />
    <image
       height="6.9003334"
       overflow="visible"
       width="4.6619587"
       xlink:href="data:image/png;base64,iVBORw0KGgoAAAANSUhEUgAAABIAAAAbCAYAAABxwd+fAAAACXBIWXMAAAsSAAALEgHS3X78AAAA GXRFWHRTb2Z0d2FyZQBBZG9iZSBJbWFnZVJlYWR5ccllPAAAA2NJREFUeNqUVdFu3FQQHXu9XmeT KM5mW6CqkOkDT6hshMQLSFnxAaz/IPAH5QvgD8ofIB54pUnFY0sXiaK2QrAolVr1oYpATVtKdp2N fa/te+3LGW8SSrObJl6NbM8993hm7plZi064rv9428ftCmwbtvHpJx9Fs7AOnXzdgnUOntdgn88C 2rMWvvv+h6DQ+pCEjDEhfP6ZiWzbDvMsPXrPUunD1z0zUd2prSMiqqwoqFAKPqd3JqKbP98JXNft WJY1IdGKLPg9zw3PRLS4uBDOzXkcAZVlQaYsyXXr1GzO+ff+uB+emqjdWl5r+UvEZKgyF5pJaHlp ic6ttHqnOn6ZKz/NspCj4euvnefVHQR0vr1C8/PN7qmIbMsK5zyP3HqdGg2XlC6qqN6+eIHmm01y arUg00Wn4dQGJyow2k+u7QtpRJabVGkTy/T3/USOMjwjWn43wFx9bY1iIcJEShIyJaTIrj6OrC/T DD5JiZDAyGMFt15+uf/oceg4zjWEjxRscuoOp7IKGXSU0t9oSEEjVZaE0nr1vXcvDaZGJLOsJxHJ wVcpjsX2m+3WANFtxIkgNo42AUakaXdmajLNQ4F0OCWQMniD/e9cfCvi50l6lR8YtT6V6MYvv4YI 3c+VpjTPAcyxIdv87yPZpoQvV3l1kqrQHewJjhFZdm2tgIKrOhQlg6OPP7jcP1xXRdHXha5IGFOW Bpus8BhRq7UcLiwsoBUaDCCQbrwcevfD1e2iNANeq0NjjG23V3r/E+Q/UnXyXAUpcs85La6FEJuv HjE2f+t5XsfzGhBrZd1RXvrLrj2ZnE/3kqsvRG52U23+TjKzs5eMpon18fNh8CRKgJlgd6Uyz8bi s6PUolEU7kURxeNxNX/QHv1pRJfeaG2jbQYlapXEMY2GQ+wdVek5d7ceBtBOwCnVIMSaEKiTuzmz hYbDvsYI5oIXEwvvbD3wHRxzyGqtQckWfjkmoVLq/du/bX0VXDhPi/PNimB3b0x/Pn1BT3ae+Txe zGSOV2TY3wVRtm7biMS2Ku3wgue6V6xXQzEHsxuYcSyqQVdHCxWVFMqeA7bAskrKyko7qM/r/qEm DcpN7eojbMDFHnCIYD3exScwTfaYQ8/AgeMLdPeXWPWP4p9y8UYecFOGxk+wr/8VYAB48w8H826i WAAAAABJRU5ErkJggg=="
       id="image906"
       x="108.37668"
       y="194.09654" />
    <image
       height="19.978687"
       overflow="visible"
       width="19.071167"
       xlink:href="data:image/png;base64,iVBORw0KGgoAAAANSUhEUgAAAEkAAABMCAYAAAAhvppvAAAACXBIWXMAAAsSAAALEgHS3X78AAAA GXRFWHRTb2Z0d2FyZQBBZG9iZSBJbWFnZVJlYWR5ccllPAAAEedJREFUeNrUnHt3E0eWwLtbMoTJ BNqEzWM3OzRsHgQSkHmGGHDLhEBCJpaz58zuzP5h6RNgPoGtTwB8Aos/ZndndxLLA3nwWCwBNo8Y 3BDCTuAwVpjJQMiQNJAAttTde289uqtbstGjbbx1KFcjy1LVr++9devW7ZKlGSwnRy7qjiRpjuRo Elw4+KLjYLvKcRwV2jy09DXHMeHKIP+XJPPt1nWG9JiKPF0ffGr0ywQMsA2GGwMKMWhVDsZhFwIk hOK1Hij6HuyoLGM1FEUxIpFIHtrs5tWvmf+vIJ279JUGg9Jtx+mAFgFJtjtgBgTxOPVDAjBuBVAS A7Yf2sy65S+asxaScfmqBjB6YEBJPkAOx6tVQgpeO47XUQESA0RaWsl1JhqNpl9b8kJh1kD64qtr leHYHhgXlguFvg4l50qJ4xjQ3mGfsQCuYwKkGLxDxbdVkCIXUjQaEa6jGWjTLz6/qPDYIH15dUx1 KJxuD47/7guSZNg2QnDyQKTQuub13MHBYaKWxIDbzmI04vBWjRluNM4F6FQeJCfXuW0zGejhoc9j AAXrKgCg47UnRRQSwOGQsDXhPWnt79S9Mw7pj3/6OgaD7ocBaZOpFoHiOPuhZtevWu7ezU/yp9FO 7UJAKEK2JKhi0P54hjoDNd2xtdUnFUPGZQ0gJABGFwCKiYCwCtKWBVVMPT//Z+aMQLpS+DOq1R68 4zZRKVuy/aqVgev06hUv+wb02fEzMOVLfUR6mK75Afshyf7ZDKuJoN5vf7OiVBhXCzqA6opEokkK CeFQO4UtgEKpij/z5BxjWiFdu/4NAuqzPWkRIWXg9fSqZS+W2YBDJ86AfZEGHWZXnDKDHlBVvxS5 lUHL/DK+MTVZH7/6y7cAK9qD6ijaLGwZ6PiieVFjWiCNfXNTd2x7UFQtBqkAbWrFS0tylf7u8Mmz aIDh7xigckiolgMMUg4+W4O3aNChDhhQLAiKwcq8p7+Rmqq/12/f7QY4AEtRKSCsEge1e+HcSCZU SNdv3NJs2x5FSQBQopqAQbbjy5YurqjrR4Y+R+M+KLkzlSQJoNIofTv1jZPOPtmjJzUYUB9UPSBN WNPvblnfO1W/b9y9D0Y+0qco5bChxJvnKLnQIP355nf93DH0pnjbgDb+0uIXJjWGAAkH0eNXMQmh dO7YsqFqkT8weKobBrbHZ6Pof+LvbF435UBv/TQBkiQPUqmk0iTRMZjQH1C9pqr7oUz2i29u3ca7 mBDvggLLAhmM4FSAWNkl+Q0wiLoUrwUQFrBBaKxTIiB23fOovwVDTewQADIQkHCTVduy+m/c+Ult GBJ2BO6ERKvCDWBq6QvPTwno6PAIglW5irDP2r1984a6nDuwQRm4OVlFVBtJ0g8PnYs96m+ffiIK M5scB9NgWJYlARzJohXNSF9DkL793gSdpvaAAiKd27v475+tRhLaAlJU2Na6LiM1UPDmMMMr2pau av5WbZLNUqnUWRwfNycmJiS45qASX9/6PlE3JFQzLkG0UzidKvuqHFBMlCJcgjTq8e7YvA4BZb3+ kJqo9u9/uH3bfPDgwb6J8XGpVCwSSDadiPrGbv7tkWoXrUhOkdskR4Z/OD/L+GHZZxY2F2q8+/zy 6zCWBgBoAJok/Wxig7XJ3nvhypgOthNv1ipQU1wlxIrFEtEI7jtxQWPVrB0STL2o+A79gQuIgQbG tyAcSLLpvwm0PXvpSoxO9UobvIZgYsytd90OvGHcFUEpwmsmlbklzz16IVymbj/c+1ETZjNJRrWT lVqkKB9U3dyZUTUESeK2kVRcdgwbl2G8ziiMuY9GI6SY64/5/toRuYllX102CTqjBaZ9aeH8n9di Vwpc3SK4NIDPg88cHDp3UW1QkrrQNlKVUaQoqI2n0o5bnQok6Evk9+AjkTBNGp1KkKJsXc7k3fsP dGgGxdfm/2xeTdGCY6fPjwFcjd95lAIYVAEWn6k1K16py5CfOH+J9IurCncJRGPufh+/yYqSg2sM uxhYl9cZkCsb/I8PHrqQ+F15qkZIoF4683apNGEYg939pmg019QU2f+S9otMHaDQt0n6QHigcjQG Ll/AtuWVpaFtHJQN/qeH42WS9OQTc2sOzp08dzEJgPooJAoIwxhNLEAGrTknGs0qEWUgIiu5hc2q WQUkVNkx9L0IEJkAyb2xctm07qSUDf7++IQPEtP75nlzmmoOXJ25cFkHCdoDgGIkehiJCLCiRLoU arcQZI4Z/dz8p57KSbOolEF6MFFE/2Ms4OvEn2iK1t3xS1eu9QKcXQBHFUFF3bi1LPouohNqCODM WQMJy3jJ+oEH4Pnaa05EaShefLVwXY0okSSo2S6ApEWiID24Oleo3Qp46RWDkAzcBQat8FghTVh2 PzQJ4ZdGU0RpCetLb373txiA6QIJSqDLofBQRg3FsknQLwvLizys7nPPLnp6ZvfdipaN7n+f52cQ /yM+twGVm6yYd+6iq5BgC2NdlODJCompw9rLdmyEBYtWWyqWStlSycoXLSu7bOniwkxAUqEjYJcc VdgwzIHxjk+3aN+9d09jsDg0rRySQ+BgGJlCshASq+Q6Vyxa+0sA7I3YCnNaIBG7VCyBqy8l6cYi A2U76Sfnze2dSaPJoMUEaLhgJZJkoSRZRIoIqAmEVPSA4WsAMQPvT7etjxVCh/QQZjnQ9VGJbhqy DQDSqVTz/J9npMdU7ty9i9Ktw+DbYPAJkBatGIAzAXBKTKpsJnEwliz83b6tG9fkQoPEHMtuttfG AZEWOrb7uUUL90qzoPz121sIKTFRLHUBFBIS4WpXInEjh9gubJk9w/Xa7rfeXFMIBRKWez896LNs K0lsgIWG0iKwLNB36ERq6T/+gynNkgL+GACzEgCpC2DFLKaWtpB8Iax/0wCqNxRIWG7fudsHYJI8 oldisWIQaRM6s2/Fy//UK82yAssiVMku6G9SkCKf8Ud/C352vt261mwY0q3vf1Dhy/YAnCRKU4kC Yi3WIoEF/9/burbFnE2wjp0+j3kLuLuSdPf/hIAceiHo3mzfNHkmXU0u3PUbN7sByh4iRS6gklct YjwzAGxge1trdjbBOjpMdldwD08XkzN4uiGC2rF5vdEwJCzXrv8FDWUfQNEJJKvEYKEKMoNJdyRM UNEs1AH0sT54961ZIWFHhka6oekhu9L+BA7sX/ydCnuDdSdxXfzjVYAEsGAK5lJklTw1tNjMwmdE qDmoA9j+unOn8ThBHR4awe13XHppjt+oI6iWd9v8e4QNpwOeHr2YBDBdAEXnKkj3tWyf28C2cPhs g53J8hX+v33wXmGmQR06SfMVWDadJNgrY6f+RkuokNy4xqmzIFHWLgCVYDukDJDjQnJBlcehMbyK Tt7+38yglH124iwDxTYQvH6lAVRv6JDEcvBoXgcgHQApAa0WkKKKwXohc6QAP7LQ7v/X93dMO7BP 8mcQEEqUGjDkS37Z/qY5bZDE8vuDh2MkdRmWEZihUgUksqnG87ah7vvVe29P6zLo49xpsrJw3QI6 +2F2Xe+MQAqWf+//GKfgDr5YFSFxQFh4pFJmmWqYKPrPO9qnbSl0YPDUoEQTXrltMju2tjY/Fkhi +e1HB1US3JPlNtaqUoUMN9nNalEMWZFTibe2hK6Gfzg2rDO1kwSJgu/alHmskILlP7KfJIBEB8uL UpkUUUBkr03h0pbq2LopdBUc+J+hMYemJXJnM9v51qbOaYN058f76HSCLbK62FMQaARTzy1qfqRT +bsDhzC/KQlgdslkkzNCYuGyrIipN6n321tDBdV/9CTaoB4hj8D8YNvm5tAgTZQsjSUrtIGR1nEV PlEsEsdSMNS7n326uSa78uFnx7oBUg8AU8X8SVZCBfXRkRPY/1HJM95YWmqGZN67j53FTA6NbmXT bA5oVW6AcQYjQS8S2ykSf4n9Lg2Qao4YZI8cR9Xrx0TTYHdwEAAqNGf0w8PHg1NvKkrXY38lBhQG XWCpf7rCxBvaBeSRBWobWCdZ3hLLReSpLe407sKyWezJZpOWXNf6LbFtC1lX/eHYENnmFn6lSjSB NRWi1uXYzMuLFgVAxJmSqtmlYM4WZi0iIJllp6M2+bVAJuu44kSRRAkdFs9Bv6eR3oPEpABUTHQd EBq8lg5Lmirs/y1AZyRRCZCXriKJU2IAWfD9pBRAmzMPx8f3PhyfYKCKPDIQxkAqSY0elhgBozx3 11iNKWVPF3lvdt2ooIcsoMvBr9BwpjEFGd7X3BRRlsyNRlLfm3cGAJSExpvYJmi1F55vGBJIDEqj EehTR3iQyv20KKbvim9A2wPGx0D7IUhensExmLEszH9y3pQDRjhSmRqG59IEVE4NE1JQQ6LsGQ9f buF4sdi5bOkvGrrroF4FXNDiPj/NBJWk85f+N7b6tVfD8JaNwGShhahuCwL/l5RXAAbGd8gK3XKj iolGv6xlxbKCF+YtkQgmzHJh3XEzcNdDhFT2PIpBVpGocnzrmFTLCkXHSyXLLLL4N90LK8ZCGota YdoOB5IkBz/7jsIM84DtN+D66JdXGr47IEWGxTYJaWjXagtpLDFpmgosf2JKJUly6FOPvsdFwRHs afQLYd024O6qENUr6dIsLp+eOKPzJyCE51gKBNLKZS+a7AlIUZqSZy9c1hqD5GQtbyMTpUk9lB9K hDCeVZVsVONSpHR4uev06aqdbRsNxZvqyMPF7KlIOt+DNPU18qXtrRsKFntCqOTt1e2aBnXLhwFJ wRANT3+mLdk7dCG1LH8Zk8CzVJJs7iPoQ+cvdjckTZaV47sndJvJ0gcOHatb7diyJCjhDbsVR0+f T9KsO/FpCCXvg8SkaTeGLbnaydS/2XNi5ELdhhI+a5+buODtw/V9+PGRet2BoCSa4IXnQpCiHvas Ls8LL2x/c22mDNLa118tYA6PuO3DfJHB/NnRukC9274FncqMt61EVLqmh/LcoNiR47ipkAxGUhpe 9n9+oReDez6DLcv7PLegQjltfEmeveXrNpv6Tyhh8fiG1TWLNqgXJlyMARzVf9CCjU9xd/6mc+cj De/vPz2GMatBMfjGHzxuRJKOn/tCZ5uU4nEhhfb1LUtcKasYEnGcFLzRcLeAaYdQPQaPnT6XrLUj HdvbTXw8vsK5ADr8GPvtRwe72aZAWfnPA4e0//r4SC/0apQc1YF7eLzCjNwIoJOjl8C7lvplNqN5 076c8juYk5Th81/Q5/pJcqkUPLBlL/xMb924tqap978PHCKHMAR9MmFNQBbQwt6bxqrvKU5hTy7O AnI1l+ELl90TM9xTLuhTThl97arqIBHS5y66++Xupp13fAYsgJ3dAKomm/C7gU9dUGXb3RU2KN3o hB8Sgmz5YLte8yL87KWvVDtwII13fJFjbFn9elm+ujLVB25as5Lk7ZAQiRtr4mJJpuH+o8Mjg1Cr ntL/peOdDPvMQiVAAbX3XdP/O6BezpJ6AI1cvpqE7xmF/neXx40kA37GK6/nqp0Bzo7iNnC35Dsk SjiQBe4C/MAZIbutdV1VKgB2KMmm9Jjkf0TeJ1WskvyAX+3cVpPkGlfIUUYJdpyRxs4GCB5ohfY3 3jpJznfNz7HBR+LUrfHwrtiyL+VpNQNvt67LVglLk+h2VKwCJDTMxq/f31GT7bl07XpCODpNtYVj RAJHGqU3rny1d+rIQI1l8Mx5PMCu2yESQI2eqw7cbgXY4kF1ONj2DS2hhTTE8qcb32ngzccARMzG w/ZsW+eTTNn5Tt41+oSpDa89+knOuoOr4AogIJqwKZz8F4RU4cC6Aqt5dt6R0dTUZPKDorxjfRTh HCRSVTKBYNzLshbAcicGi2YV4ZBlDyygvRQfmrstHmIlSFKBrVP3rlvxclXSGUoE+uipkSSQ6XBw 52UKSOK5RvxAKLwGSFIQUiVQ7EAW8TgNkqdplSz3QAQRVAXJSbe8sjRTeyAuxHJk+HO0VWiMu/gi VJQi/4l+3llsvNYHyav4OjfMTN0KbNG+f+VL2vSexFVPwcPqoMFD6tpw5xcGrwZB1QPJfUIpIEWs GuywPTz5NLc8pOMUZyz1Jj9yEfMGNHac2GIYuAZg1EiEHlxXFSTcb4M1JIOUZ2AwFGNqzyycttTB /xNgANpiF9fJ2hUeAAAAAElFTkSuQmCC"
       id="image908"
       x="121.17873"
       y="189.04411" />
    <image
       height="19.542126"
       overflow="visible"
       width="18.909771"
       xlink:href="data:image/png;base64,iVBORw0KGgoAAAANSUhEUgAAAEgAAABLCAYAAADTecHpAAAACXBIWXMAAAsSAAALEgHS3X78AAAA GXRFWHRTb2Z0d2FyZQBBZG9iZSBJbWFnZVJlYWR5ccllPAAACUVJREFUeNrknG1v3FQWgO/1eGYC iMWIlfZNgItYYKFLHBKatKGMSVtUqat2yqf91uQXNPkFJb+g6S/I9Nt+WTGqVrurAs2kb2yhAYcW qqJFna5AglIJa9Gqzcz4Xs6519dje146DS4bj09059qOxy/PnHPuPdf3mBKQU2cumFAtky7CGCPM axHP8wjHZShYc85FUUIpJTlNI7lcThRdz5F8XifFQoEUCnkyMlIkDxWLpIgFtmGdh/003NffHw5S h+PfxHPg+Tx5vrrnMdxOfvXE4zXyM4vu18eg2A/mFDyo+CB7x8CrRdz29a3bAE7Aq0Htesxbh9qB H6z20nPPuA8EkK89s2QrCu+2Lj5sn3gZPxhsWL/2bwe0rMY4Xx3f/nw1SQ3amnACIlyokVziQqN4 bN3/sDgWzuc//PRzlzFeheWTO8e2134qoJpvYmHBbavhDZQMZiL3UgKKf5SK48FC7Ayk1OUQcOPE kGTCJsujizxyUtx/FgDNnl/7tM4ZX9z96mhlM4Co76Q/wQsJba8enJk+vNX06atvvrNbnmeCKZmt ljcKPsgCH2QKpy4cOpeNClfL0p/hOlR1WFuwd4xVNwNoHqrjsf89DpBcssXlyvUvARC3AMwhgFQG GEYblA+ICWP03RavwaaFmalXnPsBhI76hmotZM0Ol/e+XiUpk0vrnyOsowCnDLUhW0Xlt/xlSWpu z87xe5qdhh+gKdjPqDPoezAG/Q/o98CyRVIok6MvOuCY5wDINlhd8E0r5L4CTVp+9+Ll5YEAiQ6h 6FvIDqEExUokxfLa+Mvu7onRpdIOaxvQWAQkLg98e+DwZ09f+OgTKMY9AQGcddFLlnBSq0HdxJ4c exvAjIFWVdudVq5aPrzPFdAmoy8g6I06vuaokML4y6l/GsMCCZxyHXzOYYC0wEm0W6BpmgXlnf4m BoCEI1PxlmwBhkaLlOzdNbEE94VdGNeHIwrEj/a5j68e7wnozwf3uyoIJT4oKAYZQnlz+lU0tQUt FFz7Zf5fV67bXQH5TbwTCxYtMqQCkCoAaK49+qCrerkfIFcBikfVwygzk2MVgFJFOFhweAaKefXG V7NdASm7DMnTZMgFAM3l83lXwsmrcqwXoPXYujnsgKb++LxbKORPFMTAniwAyLxx6/tyByDl0cMl CwJAlgCM68MRBaAd6gKIRkoulw1ALzz5a9SiStvEhE/q1CBdjQ+HSlZE1/MnEQ6OjWNrpmk54/ad pq1Hd5KrkXGsjMhvH3vYASAupdSQDAQEW4vaoq7UKyhZEtCcmvK9YtST0lE95qyig0UZUyXo961D KfsrGNMaEUD4vIrQ7ALyPE88fyPtjnLUBxWLhagGZcwPbdy9W1dPUHyNIl00iAZgsqZBzUajI7yK ABoZGQlaMJpBQC3Piz0/igF6aKRIsiw4YBh3MBFABWjFaPA/mjkfhI+H8KblffNOQOikw1iy1mH0 mGcGT317aVC2TYyZQSMlNInWIoByWiz2yp4GlUh07kA9CigevWfIxj767AvD85itWm4ZapB1PR5a 8KyaF4QYFJp4CQjhiOWqHttp6Meh+/ifI1JruOwsc+rs2P77qIl5kX5AduTcx1ctxsG8uPQ/wkFT frKjFROBWjbN6zjO4xNmxQUdooF5dQWUNQM7c8kpc8ZsRqlyzKBAvLLT2l7vAIQzSDGWxUaOZwDV 6YtrBmjPstQeohwzas9i11jM88dClAw7ImiQVnCShnDKmnDMUJPF0sTL9e6AMuSk/372w2Wcugdc CIPuHwXdgGUHtGmpZzQvNYi0p7QOYT/x1JmLBpjRcTCtWU3MsdYUHJdRMrdv15jbG5AYDxneUOOd 986jz1nRcFIGTvPBAXoxDV18LuyfHu+Y2NnhpIdV/nr6rA0+BydJGVyFUD4kytncgdJkpdv3ht4H odYAmGM4A789g5e3Y03G5v70xs5Kr+/39kEpb8b+tvIBmtM8lKNAxAjfTiicmjs4s6vS7zi9fRBN J6B/nL1kwv0fxTQEuAUDA1CigvB2rInN+OHynul7TiYfCh/07oXLBtx2GW7+kHzwhyBkdzcYvmhr D85RXHxr3+6Bsgj6xGJbV4XOXV434FqtlsfA8YoEGFtoB8LwzYfGxtVBk1BbFt568/Xa/Zwr5oOi KTNJytrV6/M5TXNHioV6Ia87zzz1u76/4H9/+AGdq4WPYhrNlnV3o2Hc2WiU7txtmBuNhslYG0Tg c/0NkUxIgjPtyWJ572uVzVy3Hu16M5L0cBCAQQe5DBdalurOxdyjb7+7LcbAB5mD5E8kwBhJfDcI KkMw4stwHtAUeuKAPfWT8k06BswegFWtEJnzpZ5GBjc8qCg4tKNEn/PBqgNmdhLq6v7dO+pJXHxM g0jiMQaaB9Zi1hrcUXuS+mBgKGkn30W0SHoYgCB8Cyb/VfdNT9ST/nVjgHji/qfRaorD4c21/I4o zlxD8xpoSEWakgtgHKjrUG4CGIdqmmNPjCYOZEBAyUmr1e6dN1uEgLN9Y6SY98e/+37V/cWjjzrk /yydPijhWBXztUh0OrH1h2e3LaWlj6XF+0Ec0xf9wpLRqLgZpCr/I25iJR6ONXg083mTo3apDnZ7 mhhNqDVjwwQIzMpoK09SPmi4NMhSrbzoi1JeSwBQ3AeVUgno/Q/WTEzAp6HpQ7Qz+2czrdjNNGuT Hrp4UyS7Uj+egb+ZqXEnAQ1yefRRkpVKQGBedmBe0gcl0ksVubApbubD/aDRcEzWxXdsToNwuEG9 IoLLV0ZU3ztvpw4QZv3KLJcgT2E1iRMcnNlVBzB1pjKqJSQrVYDOrl2xdF03whnAAKqW1EkwWTj8 shGeopZMAMrn80dUdo8CtGfqlSQBrYbjO4jMy2BmRpoAlWUymUxshTrRt74AlJoWjOUEJjyfilbs 2n++mW21WiYUeTNw8Y888rB163+NFcwdE2+jg/81m02Ry9Bs4Zth1EuMmHgSot7X47+1Lnh3j9gO 38chjw34rniTnj8PEMoRON3bWx4QQsBxYZU3XhCv8CuYsM0MtUQ9myjaJ8QQY9y+CuGxUXvw9Tvy URV10mJiVbhwTGoVM+3RxJQZJOSBAs2UycI5dezVVAB69je/xHDiRHv668927loqfJBfLw2iBeFp +vczbN1t9wOlyVSY2I8CDADS5ivbDzZhsQAAAABJRU5ErkJggg=="
       id="image910"
       x="140.75975"
       y="189.04408" />
    <image
       height="12.580937"
       overflow="visible"
       width="6.9003334"
       xlink:href="data:image/png;base64,iVBORw0KGgoAAAANSUhEUgAAABsAAAAxCAYAAAAr49IFAAAACXBIWXMAAAsSAAALEgHS3X78AAAA GXRFWHRTb2Z0d2FyZQBBZG9iZSBJbWFnZVJlYWR5ccllPAAABVdJREFUeNq0mFtrG1cQgM+evem2 0topvQayhJSWNJA1Nr2kFyuQPDQvdR76bOUXNP4Fpr+g/QdW3voWJS+FYhw1kNC0JpUbaGhpiQyl UFri1f2yt86csyvr5tjWrgfGKwnvfDuzc2bmHIEMydajiuG6ruG4LnEcB9QlPvwuiRRUJCKlhFJq Xf1wqUJmEGEItAGXQghy2XUqjAgC/iaWE6pyR0snS++8ebZ6ZNi9H3dM3/d/xs9HgVEqsO+ZVILo WoZomWRRleW1XDZrvQhGCTMmruDNaEhkTy4c+pQiPICqyEzh3gLc86zeaKwcDpOkZVAigyoyu/ng UAiEPQz+L4IURWIPCKKD3gZg4aB7Jfwjy1Iewki4EjAgr129tPj1tBs2H26bEMa8IkurSVU1ZVEa j8SGVasRPZcrTjzoL3/ssve1D/OJ5/kLS+fPHZpx/z3fQ+hX8NEMf/M8j9jwzlud7oJx+o0RGxTC octBCGUIIepRQCgvzc+V4XIZlHmBSdXt90mj3QFY5/bEO1NUOY8ABeMvM2j1OGsnq2kW6A3wptzu 9Ui91Sb1ZguBxv3tysj7k1KpNHN9EEbPq86yYDvd3vVas/UMwqf3bJvYtgt2yXroNfNMTSSWk6kU QU3hNZ2eCXb6tVetvXpzrdXukV6PgfDhje8ebA+8o67rBZ7xvBZFcZfMKB8tXiy6nl/lSQZ2+fWz AazT6ZBOp0u63X2NIq7nlUAJU+7IYKHTRqNBUOv1OqnV6vC5GQ3mureYVx73zgHg3a2H+QDWNBDQ bHKt1xuRYNeW368AwGI1FtTlVwaTIIzGyFqgtEwiChgvw3tbCcsbyDKzzfvWvvZhUUYVAOxgZ8Bi LWK3EEXmEOWFdVSjChT1MlYkLOiBchgVoD8NaVDBo8EQEJTA8Lr5w2Odort00BQ5MKp8+vG7ZV5r EcTB4IQpxeHJ9FCKI60HP0tInTqURBRswmhMCKwyGLo5mknx4CCEWGONAIV/TEk+Kc8UGWCCIewb 1idhcXk2Zpe9R5j9TiRBFGXULnYCib3IYc9oPJ6lNU1HAO9dAUw9Oc/MMc/Kk57FlCFYZ3nKD6e+ HH+C/Lr7t96EoQdt0WDCxqs0LWuiCnR7E7sHVvwQlEgkKlIfJqGxtIkMg2ZshiAx2EOcP/O6JTVb LUKG7HsxwMCriwgaCiNryJKFY8AQIA4YSN7HOSSYkgHGJmzp+Z41sfiiyL1Hjw14YIP4AgTMZ1ED m98zWG1swIkKg35YYBgBJ2z2ybpyaanEYO12N9ZMhLljFcc4NspzYGlQG8cHnCh+/fTkaQFABp8b +UQchpDBcHKNQ5789qcOttZdBhJAKQKrHyxcGGwsJBrTWAD9ax1KlEFdgbiQ8h6E0BOEL0daDH3B /vmo8tc//xZs27nJ1xWkugOTsOBVFy+8VRydS8YK8XEr8V6jiaANISi2TrCYAbg20TxlRZ2tSjgu 9qt1KHc3B1kVnCSAFt8+e6Y09bRgTL4obd437H6//Pm1KxMbw52nv5svn5pfhfdTgLDoOJCyHrmf x1gt1qaO5Xe3HviTvcgmDiwJF3oSZhQkUTWZVA0tnTbm9ByZn9OJns2SZELloQtOhWzHrcD18iun 5qyDDl1K41XfD/fY/BcD7OUBagy2QMywzTZ7wc4Hq3sRvDwQFMIwPavD5SrUiXYD3/E8q9/HDbrD PIJFXIXdyfV0Qr2Ry6SsI53KQThxZliFJ887dt9kIQRjCMWtDx5dJBMJomXSJKdpVi6rlbVM5tZc NlM69hHguHxz59t8cGQBjZDqMD5YAKtk0inrk/dmO2/8X4ABAPeT0TwnwzHWAAAAAElFTkSuQmCC"
       id="image912"
       x="147.03482"
       y="189.91763" />
    <image
       height="19.965458"
       overflow="visible"
       width="16.314209"
       xlink:href="data:image/png;base64,iVBORw0KGgoAAAANSUhEUgAAAD8AAABNCAYAAAARtbwVAAAACXBIWXMAAAsSAAALEgHS3X78AAAA GXRFWHRTb2Z0d2FyZQBBZG9iZSBJbWFnZVJlYWR5ccllPAAACflJREFUeNrkXFtzHEcV7p6ZXV1s RaME21GwS2uHBxIKtKYMBBLYdaVIUgVV3uQhLzxY+gVRfoHXv8DOL7D8BDwAEpRJ4VRKq1BxQRKH UaqCDblohakkcjl4bDlxvDszzTl9mZ2ZHV280ytGqO2jnp3b9ndufU5flpJdUF5d/ItNKa3CofPc T37QVOepOrj+xb26YRgVIAI3EsYYCXyf+F3kwfmABAEQ3MMCuI8F/H5xDDXD60y8Q54Xx8n7ktdZ 13XGEtcSpEBQgxID2s2PsRZkw+ey+gzFBToODHBC8AC8BNUyAt8QvOfxmgPfCeDjjFByRgZMAwPm DHniFP5RLwtL54H8F7b5LaE2UPoSfrZA6jbUU1FOWpaVfECoyE5iRgI0anSkcLu39u8ZcD9bu9sA 3FWuXoFggGmap7mqbACYSobTrTFeO6BUbY0XVHEHgJ+B28uR8yscPP4B+z0PL6kK6RNu1/DauYNj I47OBr926R30uFXVcMVWlIplGsSEulAwSQE0r1CwSBHqItQFy0RhwH2U32MK39TAZx8YGWls+r1v vu2mnefgHxndM7ty49YZAG8rTkJdQ65pBD4D1RmNvOR+6vbamlJjZMIi0BwwxE3TkmQJDQGk3VBe 3QOvDlTR1cqLb75TA56e6aMVYG81BXQOey1gSB2otNlDIXgAuyhBc2q322WNjSsLbRKkweA3umpL reBMSPH2oSZYEfAN7Lsjam8vfbhSnvzGRGbVh3dVog2Az02om6kedCvYhaRLWzENYMCJKx9fI3e+ vBs9X4mBf3ziEcf5oBl6UCElVtJh9/ieqHeG/+effepYPet7AZgttQod6cl1GFI+cuhhcuWja8QT jjzkcqzz8zzfAcJaRXW6VL+UiMwaOl6Kjg29PVAd6DCGrtLxxW2bGmRsdG/Yo5gGLXWBB7CuJ0NY WU9kTire+KudFpL2o0hGIAOel308D8OxDA8OkIFikQdw0I2mgl9UHh8fgrqky9lFy3M//n6D9LEA A+agOgwBmxPwwC0gA4UCGR4aEDEE0OX3/1FOgleg1bGtwd7Jdkk+aRKQSB33/cBBW4dvJoPFAg+a isAIYEAX+EaCAZltPpCBU4Tc7QqBH7RtF4Afb4MvA+KOTkSL3PYrMfAqVY2mrTrUnkkfK8kh21jG 9+9DBjyP/gzxGCI8bkCoPG8lwetWy+1S843KkUNfb179eGUa2oKp7OnHHi01Yv28BO92h6Zvl555 8nvNnQweyzePTKATnEsNb7EASGeduDmD5LtJV3n36kc2UBXrXp43+j7A0idvf/nKh5jILAMtAN1E JmQGT1MoK/ggQVnLW+//sw7vPYf5R+T0yft9j3WfGVMvXZ22d11a+vsUeOtTmCsEUnKRXL2UGXze RukWL79XNSg9AaBrKkdIS097KX2XfLJx0L+W/7BwaSHaeByein7GEVa8Tw2hM1mnj8b2LrJtlbwE acsUdNNeIuQbMiDByM6oMu250VafBY+AnazMDUeIgQkAGGORVyBKG4W2zuBkRc9tSx0n0ejva08/ hYHFdK8xgixNODyLqeqPJh8f++F3HqsDE25hnq5mmRLj8vmQvMylKx1NENNhYija4LWiAmRbWFuW uIY5xuDg4GyxWDx/cGxvI2lCeK9WydOUf1kKhMcYjEzdv7kYZGhoCAcfpoBXC5+t3b15/YvWuc+/ 8niXVrAKKjsLKbva645yEv3v1iK8+Bd35tg4E5dvtoJzw8NDE0p79Kl9Tnp6MVNGUwk1aWT0AbJ2 e43PJPcaMm9q8ywzCJqM89H7v7yF53DEdxIXFQCVu1WQ8hGZtowBqB7wVGu/T5OcZcx9+onv3tcY 3uqdryDgIS9B26ai7zUtK9MYhJEeNVEt4WPHfEUg0us094G9g86+4eI0tOUokKOSJR4dot1Lygwe VzckKRt2uUKC0Eg42uOY3IDpjBWNoywIzqphNjn37gLNa1d7HY4r9B1Mj0N9aKjw8ura3SXQgBPw cX58dM8s6YfN60ps1AIGpmkZw4GRIQQ8m+UdVlry0c+sLk8pc98lH/UZjOodw9MO3uiL2ndW7dAc yX4bJU/DiYtdA55GY27eN+8qtY/3+TmXvEF0Rvcxh5d/b79hdJ6pq6N5t3kcFNC5qjIcZORdHdh8 rrs6Q+8MVtTbU9nX7yLwxs6xed3entD8jRJtm+TjgNnuAp8Yyskv+H99cr2czDyYXJifDTvNndS7 wIPU7ST4g+P7soGPePt8g99kZ8X/W7G67Z1pjcdojplpxMFTOZdmiG1a1NACXutocIbyq/k/2uuC jy0WMKiWIa3odFKv00o6yq9//2odqmVgQF0xwehuKI2RjvDWkFu7ep1QzFp+c+FiFdfycIdOCK7p Wf7l3IUZK6n2Ua+sY7wNvtBJZI3V7QQ+/6fXy0HAfkfkDlAxw0NwY+FEl8OLTv3oME9gqPu/6uou vL4IwIMFQnD1uEHanhcKFHAuJm2+HLXN1H0wPdu8VH3TIMv//tTuN/DX3riEWBZQ1ZVQfT+2kNpJ grfjq6SMzOBxbk1t51SrruC43E/gf37r3bppmn8DslXv0m57sXt+8cLPm0m1n1R9u1SPzGvjDx8c d1c+WXXlKqxQw0jKXpgs5b2rH9i+79fa7fYpUO8SahjaODId1d3D5fMdO3ZSghxaYkwEN2I2mSxp CSaE06tGtnVP6HjvtU9Xq57vlQBcBSRbw50hBi5VYSbx+dp6Ad7nGw1ixe0CjxKhkVkVONayMUCq flXsc+cB1MwN9/aMqfxBx8yiJicFwPjCpJbY6MhXYiivjQDV7K/qSoPA4KDx2Cd81UbjHqi8/OWE GPjQ5lt+UKPdjdACHsAtcoASqEGploEN9eMAYSxhinaL3WF+Exg0/WzlyePJSBPKUkzycKoSbvwT N7tFM7vDU2pP4wP4enq+MBGjXFvx5yz8wG+CtE9Xnjg2m8wvout2Y+CBSzU1ryavzelyRg9/bay5 +rl7lIi18Rp2bEkKxEHAAtwKO4/1sW9/y9lqksXB37rz5RR6yDDuFiON8zq98YGHbAcYgLseM3Vz LPzL3EPjB7ZklnSdkJqz4sbNW8umZZZwpBV/1ENsKcWNxUx0E16b3Gu1SavVIq22qLHfRAfk8S1o Aafwh0QkMdK97i5crCBVNpbxqeCK+wZRZ8wC0bEttdutk74nFi/KcvrFn/20bl3/j2vj3jeCgNE/ dhpf9QUTBAN8j1/jIPkqaJbDganUUrOsgtCXzla5Se6L9j9o81XMgexSgsimQg5Y7a70xTmmfu5l hyBXWibW6RpKw2Ip7dn1orn15buD0JPI7oyIKXGHh9IH9Z/mzohmXzuibDgHe+owkixhCgttKXd6 C/ZKPodU+1R+e7Ghfmig+cIzVR6//FeAAQCdyqtz2TuJDAAAAABJRU5ErkJggg=="
       id="image914"
       x="160.20012"
       y="188.84924" />
    <image
       height="19.542126"
       overflow="visible"
       width="15.054791"
       xlink:href="data:image/png;base64,iVBORw0KGgoAAAANSUhEUgAAADoAAABLCAYAAAAhxZRMAAAACXBIWXMAAAsSAAALEgHS3X78AAAA GXRFWHRTb2Z0d2FyZQBBZG9iZSBJbWFnZVJlYWR5ccllPAAADDJJREFUeNrEW1mT1NYVvlIPi+PC lsuJTQoIcliNWZrVYJuMSELsVKqg8UtSeaH/wZBfAPMLwvyC9LykkpfQJJVU7EpMT2wSs2tsFsOw iM1gKECAbWC05dxNOrqtnlZLPcm1D2r1tKTz3bPc7557pRFop85M1DSN7I6iyIjoF1FE8BG+JyH9 LAR/bj/nv2fXE34umwYP0XUdRB71ka3rVjVJjnb15i3QUdtd0XVjoFIhAxWdDAxU2D27tOEX5sxp DdhnJ6pwcoD8f5oJ0hXotS9vl9HRAWnp8I+R59dah8+dvsl5N/Pjk5/vyXFBrGMk/uuh1R89fmxS oC52LQ0dCTtq/DxL+K+F2loCQCPou/ZWYW43IO+zt5umcfiEIQmCkPhBQAL4HEW5Ae9lmoyfm7gC Spkophy4yWikxGoYRhnxGsbn8u9qfOOOnD179uCMGQMW/Sz+1tq8avm2bppevn7zAc0htFtpfEOM Ot95btYojVelDYJYyne7BoQCNE72MOtoTEejumLJvukIymNnJ/bB86xerwNrNqFD67T3dNa5Oplv vNqm48NHjw4oCcqBZNTURV+PYZeEHjNOX7hcnQ6g1GUrYAUp9DxP8/zgoO8H5JnnkWeTHvE83zx/ +arZ1iFRZGGPk8mOAV29fFEzBsmAsqM1HUABnCsBCsnVoUEQtCY9n1Cwnu8zwHCe0vHe/QfVKIwM GstMeDiNxkDZB01ribFNypppsqgtrSqA5sr6K5cucn3ftxnISZ9Z9enkZErHIAqtgLo15IogZMnL NV58wU4D1fWxGCR332lxXbivgy1KP1+6fS+X90z6PrMqB9tu0TCIBsNAWJNJZMfPRQrYesxcdOrG 0wJ0+YK5DgB0cYzCMRdQ3w/HAzHE0CMMMykdvcA3PObaARuCQMbagAIwWwCMKdrl619a02TVFk5I IIM5M68dCpAMLMg//3OiihKW5QU8hjlgv92iS8z5jgSoaZyPwtGcpoR0MA1Ut24/ftI1Vq0319oq zxY0knxxyTE96tbCtfkxcNuAyp7mYDUJNgb6dNKrgxwCOfDkmVctCRRZVGdHeHYt5+W2cs50ATc1 fWlNL6DxTBb9YH4rToIpBqrpjjIZGBQgKeDfKTd/rSjQecbzzldfP7V5HuAkBdpOkEZXOhgllFW0 hcJtxX0kfVXCJW1R7SoiDUzQLEM8iJFq89tnk/UyVoVOPSjzgXhe7f6zIM9QM5YxA6KWtKgleXwy q7Y6AoUHOijr0mGmKr6vyg5ABHuoXELSGjQ8ZKeK++fuPCVOZfLBiaizRWFS6+iSHdEHAxUUQA0J VGQ/+oDqo2+eFM7K331uBk1+Nqae0IZyALSVWYsldQrw7Aaks0XTzIiB/eqea6rTM/ocPlMJ95Zz X21EzmKogHLm3W8nrS5TNjeSUzchjBWF4YuCJEhm5HYEOvdlo5XivNytTMk0qDK6sKqYlln3H35d ZqxtUprG55mBZDRDeV0Wuy7oUhW0T/DccLwjUBE7PEEw4VYVLINJ4r7yQeHuoihfmqm7bPoVJrQt CsParYffmF1KIynQf//4qIXrV4LMk6mB0vEzFg7al5QKjvQm0t0E2Prd+w8LEwu4fhiBlNboGBLv vrPRwZbMnfw6WTQhDpoZiOBmAzJMj3QUVwJs4Vh95flZDgBsRciqQPPqV+8+MHpxX159TMuUQAFY S5mEmwm3DMSswaMui8CCu925ZxQFC9cPJyADLmG4ZwrSMCWonBZNZ97ETZMehzHKDWXgc7AGyJ6i QOe9NKcF92oxzwm59wDYoYkbtw3Sp5Zl0TYJ5Gw9BhzZAZ1JUJDJ34au37pTWDEAN8qtKcbDMKSd V8/vutnZOHeMUolEoojkOMVm8eFIDJIPPVSxWlGgr736cgPAOtSa6FlD3YBKA/TNonJ4oa5Fgc2f +70GPMBJSp0MfCkCQTOwUk41zzo36hkFsFiKWxSTBSGUN7IhhonPJFYMFaKoYpev3SxM9pcu+D7t PDcKUyDyEQiFLUVFLMrABUIQYQZlaK3VVWO1pFVHQuyWwHg+v3TNmorQT8WYegQaZFrUnDfXpYpF OFEB2T9/5ZpVAuj+iHZemFJ6b9+TUWZRilnSYyKnQmgM3M/5qnA3lkiKE4g3XlsAnRc2oyTJ0aNl X7hS7SthkOwfi8dLi7wO47Eqefz7xQvnu9yFGUCZla0zE8Ur/aDkcNS+BjuU101zZV3OeNLiCXdN Zu9e+pqQJiW54BRPlQrH6urFCymfbSgZuH7i3EWTZCSdTtKzRWVcYknVahctpMNMQ/5eKjb+xcXC ZD8Usd/Jqnmnb52BSqsgYYQ+BsmTUgZfHWmPmeJWXbfsh7SS0FKUrx85fd7ISpi9A8WzCDEh9rzs cRS3VcsWCcVIyt1Onrlg9JFAGPB5D50Sq9Iz0LgILASDiyXwO7lbkkSIIPukONnfsGIJtagjp4Ni CBvqi0U51fNTEoRhSnw/zFSs+jpSrA/u29Z5wqq04F0eaIrucZHrHFKoS3dUjLQrduyzc4Vp4eaV yxqy82Tsz5wxo19A06LG7VRA179BFSOOki33lrTqiARJ/xFLGGmgvQ4v2UCjNqvmUQzPQj61z9RL EAhO9um4LqeScgeNoK0FLIor3j5jRJKK5WYifLB38U4yULRwtfCd6grBqfm9lOp+rl1ObUAnBcVL sm5vrkvbpjVUMaIO+NbhE5+VIfsN3Mkd9z6lK/85hxdhVbVm1A0omoXE7iv2HRWO1cH1q5wELGmL 0d6BCnAsPj0uIa4Z5SxdbFm7krpbg6BJMV0n+eT4uFmWQEj3xSt/PQOVY6eHJCwwWxDkezhCGSUq adVtG9dQqzbzum/XZKRK4SSyfrVDpLslX9f/dcwuYdUk9nFJtudk1G2m0rNihIwmn2NvKMyWfrp5 bQvuhBd53e1b1rWyal25XBcvLJVpWzesaclZiDQrHOpjR0+VKU7vAvkNyDDI2k5ujNtAO9CQTEMb oYlI7sqG/ylISvb3FbnZ9i3r6drnfrXW1ZPrBnLtA0m33urWfrSx2gSndYiwqsjCu/vZk1mF927z UQvPVCDj2n3RJOIZGGVh89CRk3XyP2pdJ960wkeyZrq9Dvib1jbYIi4qOJMSQ00/LIo3DbJjWddF A/5olD43P/r0RK0fQHseR9OFMUn3tAwp1GgCcVPLCFF/YrUnoH84+DcrtZ+AlzDsfll025vrGC2M 4sVcNrLW/vHv42YfgI4pOq7pCLStvAhgf7nj5666OIx2lJViNkRW1UlUnwaLGh2BgvVMZc1D7tVR rVp4uvWTLeuBr5KmZEliNjLUT6B5mJFJSGr9gm/T1nVX4zvJYim5YjaKiBJtxoeHj9VKAo13vXFd p7AoNHUfvSuAtsmBD8cKU7ifvb2xSdQXizRtZ6nhBYCmjKGlt8qrQFXl2e6r99/b1tLwnK8PW9Hh +gZObHCslXZd+T6AkE9OnTE6AVVjz4lvJHpK7hGUGyJLtFG8XZa+a3PoqG2VAGrrba+UkWob0N8f +KuZkbmchHno7HWRxDXKWXT7WxvoHn6W0WX5EqQw0K3rVtI84qb015Ot8jrqkqpK73696xetLOt2 iOeeGwBsSosKsIMl3dfGWRePpdh1B9EVVOyseMUrEOX5qT4u99YLsFZJoGM6yiM68jr8OoilMB8V qHpu/vmjw2ZJi9oIJDseOT1hlrWolljUSgH9418+MNSYo72Dz3f8+O1Wxr1LWeCtNa+r77+k3swo OsTgquDxsxdrMVBpTaVsmAVMterOsu6LX92SUrRtWrnUluQmeY+cj88S6E5NT23kd3614z0na0hQ zmtl3ZcDla9v5X/NsvP9Kk36Lg16SakW14wAZE2jnExkXXioAQAOZdwna+wcEoWqntuFm3equPJP O3nWrJm/vfHgsVupJB3AFpHQCnwodoAGvjiKV6HFq9FmiF6LpuR+fMLZM/CnDw7V6BqmHFaYuSvs Vce88VeYOCyd94p96fY9BxQz0ZtNVV2vTFmvjTLWBeWqWoVdl2yFl2Cp65rp0n7PhH245JDQSmIU u5zM/hquEWd+lkOiJt6K0jC5BxJBJ/wUVQMT7B5bC7KxUzIfjSv6psBpWtl0RxqrFy90B95/d5sL 7kvfM6sXcMMmKd+aRd0/5+sD1JDkvwIMAFAuIhcvSVjgAAAAAElFTkSuQmCC"
       id="image916"
       x="177.31113"
       y="189.04408" />
    <path
       d="m 107.48562,208.05678 h -3.27554 c 0,0 1.3917,-1.82827 2.64848,-5.40544 l 2.94745,-9.41916 c 0.54505,-1.96586 0.0265,-3.65919 0.0265,-3.65919 h 5.70706 c -0.2196,0.16404 -0.65616,0.95514 0.10848,3.65919 l 3.22263,10.26583 c 1.25677,3.57717 2.37596,4.55877 2.37596,4.55877 h -7.31573 c 0,0 0.76464,-0.49213 -0.49213,-4.61433 l -0.68262,-2.15636 h -4.09575 l -0.41011,1.30969 c -1.36525,4.31535 -0.76464,5.461 -0.76464,5.461 z m 3.22262,-13.29531 -1.80181,5.70706 h 3.60363 z m 22.987,8.49048 c 0,-5.18848 -11.57552,-2.10344 -10.81087,-9.28159 0.27252,-2.7305 3.1115,-4.39473 7.20725,-4.39473 4.12221,0 6.14362,1.69334 7.47977,3.87615 l -4.8604,1.01071 c 0.82021,-1.17475 -0.51858,-3.63009 -2.67493,-3.63009 -2.15636,0 -3.08505,1.3388 -3.08505,2.54 0,3.90525 13.35088,1.11919 12.75027,9.82928 -0.30162,4.28625 -4.34181,5.29695 -9.00906,5.29695 -2.94746,0 -8.46402,-1.14564 -8.9826,-6.14362 1.44727,0.082 4.83129,-0.41011 6.08806,-0.95515 -0.54504,1.99232 0.29898,5.37898 3.05858,5.37898 1.99232,-0.005 2.83898,-1.12448 2.83898,-3.52689 z m 7.53534,-13.67896 h 8.27352 c 7.23371,0 9.63877,2.97656 9.63877,6.68866 0,3.71211 -3.22263,6.74423 -9.63877,6.74423 -0.65617,0 -1.30969,-0.0556 -1.9394,-0.16404 v 0.60061 c 0.0265,4.1222 0.95515,4.61433 0.95515,4.61433 h -7.34484 c 0,0 0.82021,-0.9816 0.95515,-4.55877 v -9.33715 c -0.13758,-3.57716 -0.95515,-4.58787 -0.95515,-4.58787 z m 6.33412,12.01208 c 0.62706,0.24606 1.30969,0.38365 1.99231,0.38365 2.48444,0 3.84969,-2.34686 3.84969,-5.6515 0,-3.27554 -0.76464,-5.87111 -3.90525,-5.87111 -0.54504,0 -1.06362,0 -1.50283,0.0556 -0.21961,0.68262 -0.43656,1.80181 -0.43656,3.68564 v 7.39775 z m 25.25183,6.47171 h -12.20522 c 0,0 0.90222,-1.09273 0.90222,-3.98727 0.0265,-0.1905 0.0265,-9.91129 0.0265,-9.91129 -0.10848,-3.57717 -0.92868,-4.58788 -0.92868,-4.58788 h 12.20522 c 0.76465,0 2.42888,0 2.94746,-0.24606 -0.24606,0.76465 -0.082,3.00302 0.24606,4.01373 -0.68262,-1.06363 -1.96585,-2.37596 -4.20422,-2.37596 h -4.50586 c -0.16404,0.68263 -0.30162,1.69333 -0.32808,3.19352 v 1.71979 h 2.75696 c 1.99231,0 3.05858,-1.20121 3.05858,-1.20121 v 3.60363 c 0,0 -1.28323,-1.39171 -3.05858,-1.39171 h -2.75696 v 6.55373 0.0265 c 0.0265,1.69333 0.1905,2.54 0.381,3.22262 h 4.45029 c 2.23837,0 3.5216,-1.33879 4.20423,-2.40241 -0.32808,1.01071 -0.49213,3.24908 -0.24606,4.01373 -0.5133,-0.24342 -2.18017,-0.24342 -2.94482,-0.24342 z m 8.32644,0 h -3.30464 c 0,0 0.8202,-1.82827 0.95514,-5.40544 v -7.64381 c -0.13758,-3.57717 -0.95514,-5.4319 -0.95514,-5.4319 h 7.53533 c 0,0 -0.65617,1.01071 0.87312,4.58788 l 3.35757,7.31573 v -6.47171 c -0.10848,-3.57717 -0.92869,-5.4319 -0.92869,-5.4319 h 3.27554 c 0,0 -0.95515,1.14565 -0.95515,5.461 v 7.5618 c 0,4.3127 0.95515,5.461 0.95515,5.461 h -6.11452 c 0,0 1.11919,-0.49213 -0.73819,-4.61434 l -4.25979,-9.25512 c -0.2196,-0.43657 -0.4101,-0.84667 -0.57415,-1.22767 -0.0556,0.6006 -0.082,1.28323 -0.082,2.07433 v 7.5618 c 0.005,4.3127 0.96044,5.45835 0.96044,5.45835 z"
       fill="url(#SVGID_9_)"
       id="path918"
       style="fill:url(#SVGID_9_);stroke-width:0.264583" />
    <path
       d="m 107.1152,214.2348 2.01877,6.07483 h -1.02394 l -0.41539,-1.2356 h -1.9685 l -0.40481,1.2356 h -1.03452 l 2.0267,-6.07483 z m -0.40481,1.89177 -0.67733,2.01877 h 1.35202 z m 4.318,-1.93146 c 0.53975,0 1.08214,0.25136 1.34144,0.64823 l -0.69586,0.74348 c -0.0476,-0.24077 -0.3466,-0.42598 -0.64823,-0.42598 -0.28046,0 -0.55033,0.23284 -0.55033,0.52123 0,0.30956 0.10583,0.48419 0.40481,0.64823 0.66675,0.35719 1.3335,0.48154 1.79652,1.16946 0.19315,0.30956 0.29104,0.64823 0.29104,1.00542 0,1.05304 -0.84931,1.85472 -1.90235,1.85472 -0.63765,0 -1.27529,-0.26987 -1.6219,-0.81227 l 0.65617,-0.69585 c 0.21167,0.37571 0.59796,0.53181 0.96573,0.53181 0.48154,0 0.87842,-0.38629 0.87842,-0.87841 0,-1.28323 -2.50032,-0.762 -2.50032,-2.82046 0,-0.8599 0.73555,-1.48961 1.58486,-1.48961 z m 3.82587,0.0397 c 1.2065,0 2.11402,0.99483 2.11402,2.11402 0,1.14036 -0.9181,2.02936 -2.11402,2.02936 h -0.36777 v 1.93145 h -1.03452 v -6.07483 z m -0.36777,3.21469 h 0.36777 c 0.59796,0 1.08215,-0.4445 1.08215,-1.10067 0,-0.65617 -0.48419,-1.18798 -1.08215,-1.18798 h -0.36777 z m 6.19125,-3.21469 v 0.92604 h -2.19339 v 1.96056 h 1.78593 v 0.92605 h -1.78593 v 1.3335 h 2.19339 v 0.92604 h -3.22527 v -6.07484 h 3.22527 z m 4.40267,0 v 6.07483 h -1.02394 l -1.81504,-3.8735 v 3.8735 h -1.03452 v -6.07483 h 1.03452 l 1.81504,3.88144 v -3.88144 z m 7.52475,6.07483 h -1.03452 v -3.20675 l -1.14829,3.20675 h -0.74348 l -1.14829,-3.20675 v 3.20675 h -1.03452 v -6.07483 h 1.03452 l 1.51606,4.23863 1.52664,-4.23863 h 1.03453 v 6.07483 z m 3.31258,-6.07483 2.01877,6.07483 h -1.02393 l -0.4154,-1.2356 h -1.97115 l -0.40481,1.2356 h -1.03452 l 2.02936,-6.07483 z m -0.40481,1.89177 -0.67733,2.01877 h 1.35202 z m 4.30742,-1.89177 c 1.2065,0 2.11402,0.99483 2.11402,2.11402 0,0.84931 -0.51065,1.55575 -1.25677,1.86267 l 1.25677,2.0955 h -1.03452 l -1.12977,-1.93146 h -0.3175 v 1.93146 h -1.03452 v -6.07484 h 1.40229 z m -0.36777,3.21469 h 0.36777 c 0.59796,0 1.08214,-0.4445 1.08214,-1.10067 0,-0.65617 -0.48418,-1.18798 -1.08214,-1.18798 h -0.36777 z m 6.60664,-3.21469 -1.60337,2.61673 1.60337,3.4581 h -1.03452 l -1.14829,-2.49237 -0.42598,0.69585 v 1.79652 h -1.03452 v -6.07483 h 1.03452 v 2.58763 l 1.57427,-2.58763 z m 3.70946,0 v 0.92604 h -2.1934 v 1.96056 h 1.78594 v 0.92605 h -1.78594 v 1.3335 h 2.1934 v 0.92604 h -3.22527 v -6.07484 h 3.22527 z m 2.92629,6.07483 h -1.02394 v -5.14614 h -1.37054 v -0.92604 h 3.76502 v 0.92604 h -1.37054 z m 2.93688,-6.07483 v 6.07483 h -1.03452 v -6.07483 z m 4.45293,0 v 6.07483 h -1.02393 l -1.81504,-3.8735 v 3.8735 h -1.03453 v -6.07483 h 1.03453 l 1.81504,3.88144 v -3.88144 z m 5.3684,3.29406 v 2.78077 h -1.03452 v -0.25135 c -0.29898,0.17462 -0.63765,0.29898 -1.07156,0.29898 -1.68011,0 -2.78077,-1.55575 -2.78077,-3.07975 0,-1.52665 1.10066,-3.07975 2.78077,-3.07975 0.66675,0 1.24618,0.25135 1.69862,0.63764 l -0.68527,0.72496 c -0.29104,-0.25135 -0.63764,-0.39687 -1.01335,-0.39687 -0.96573,0 -1.7489,0.94721 -1.7489,2.11402 0,1.16946 0.78317,2.10608 1.7489,2.10608 0.40481,0 0.77258,-0.16404 1.07156,-0.4445 v -0.48419 h -1.01335 v -0.92604 z m 6.60665,-2.6961 -0.68528,0.72496 c -0.29104,-0.25136 -0.63764,-0.39688 -1.01335,-0.39688 -0.96573,0 -1.74889,0.94721 -1.74889,2.11402 0,1.16946 0.78316,2.10609 1.74889,2.10609 0.37571,0 0.72496,-0.14552 1.01335,-0.3863 l 0.68528,0.71438 c -0.45244,0.39687 -1.03453,0.64823 -1.69863,0.64823 -1.6801,0 -2.78077,-1.55575 -2.78077,-3.07975 0,-1.52665 1.10067,-3.07975 2.78077,-3.07975 0.66675,-0.003 1.24619,0.24871 1.69863,0.635 z m 5.38956,2.44475 c 0,1.52664 -1.11125,3.07975 -2.78077,3.07975 -1.68011,0 -2.78077,-1.55575 -2.78077,-3.07975 0,-1.52665 1.10066,-3.07975 2.78077,-3.07975 1.66952,-0.003 2.78077,1.5531 2.78077,3.07975 z m -4.52967,0 c 0,1.16946 0.78317,2.10608 1.7489,2.10608 0.96573,0 1.74889,-0.93662 1.74889,-2.10608 0,-1.16946 -0.78316,-2.11402 -1.74889,-2.11402 -0.96573,-0.003 -1.7489,0.94456 -1.7489,2.11402 z m 5.85523,2.51883 c 0,0.28046 -0.23283,0.51065 -0.52123,0.51065 -0.28046,0 -0.51064,-0.23284 -0.51064,-0.51065 0,-0.27781 0.23283,-0.51064 0.51064,-0.51064 0.2884,0 0.52123,0.23018 0.52123,0.51064 z m 3.25438,-5.56154 v 5.14615 h 1.86266 v 0.92604 h -2.89719 v -6.07484 h 1.03453 z m 4.06664,6.07483 h -1.02394 v -5.14614 h -1.37054 v -0.92604 h 3.76502 v 0.92604 h -1.37054 z m 1.90236,-6.07483 h 1.21708 c 1.66952,0 2.78077,1.51606 2.78077,3.04271 0,1.52664 -1.11125,3.03212 -2.78077,3.03212 h -1.21708 z m 1.21708,5.14615 c 0.96573,0 1.74889,-0.94721 1.74889,-2.10609 0,-1.16946 -0.78316,-2.11402 -1.74889,-2.11402 h -0.18256 v 4.22011 z m 4.10369,0.41539 c 0,0.28046 -0.23284,0.51065 -0.52123,0.51065 -0.28046,0 -0.51065,-0.23284 -0.51065,-0.51065 0,-0.27781 0.23283,-0.51064 0.51065,-0.51064 0.29104,0 0.52123,0.23018 0.52123,0.51064 z"
       fill="url(#SVGID_10_)"
       id="path920"
       style="fill:url(#SVGID_10_);stroke-width:0.264583" />
    <path
       d="m 162.25437,157.75684 -2.78606,4.91331 -2.62467,0.24607 -1.34938,1.28852 -1.9685,1.87854 -1.11125,-2.42623 -4.19629,3.71475 -8.18356,-11.73427 -4.91331,5.19112 -5.98223,8.68628 -1.83356,-0.42069 -15.04157,15.89881 12.86934,-7.27869 2.44475,-1.38377 6.43995,5.76792 -1.90764,-8.40846 3.08504,-3.9079 4.6011,10.13884 -1.43139,-14.80344 5.47952,11.29242 0.79375,-6.41879 2.93423,13.06247 4.36298,-11.43793 1.90764,10.83998 3.96082,-4.953 0.73025,6.40027 2.89454,-4.52438 9.63083,5.61181 -12.49627,-15.18443 5.12233,-3.937 1.79388,10.93787 0.92075,-6.94796 2.64054,3.34434 1.95262,8.04068 1.92617,-5.78114 2.09286,1.18269 11.01195,6.22829 z m -53.52521,5.60123 c 0.46567,0 0.92869,0.21431 1.15358,0.55563 l -0.59796,0.63764 c -0.0423,-0.20637 -0.29897,-0.36512 -0.55562,-0.36512 -0.24077,0 -0.4736,0.19843 -0.4736,0.44714 0,0.26459 0.09,0.4154 0.34925,0.55563 0.5715,0.30691 1.14564,0.41539 1.54252,1.00277 0.16668,0.26458 0.2487,0.55562 0.2487,0.86254 0,0.90488 -0.73025,1.59279 -1.63512,1.59279 -0.54769,0 -1.09538,-0.23283 -1.39435,-0.69585 l 0.56356,-0.59796 c 0.18256,0.32279 0.51329,0.45508 0.82814,0.45508 0.4154,0 0.75407,-0.33073 0.75407,-0.75406 0,-1.10331 -2.14842,-0.65617 -2.14842,-2.42094 0.005,-0.73554 0.63765,-1.27529 1.36525,-1.27529 z m 2.97127,0.0317 v 5.21758 h -0.88635 v -5.21758 z m 3.82323,0 v 5.21758 h -0.87842 l -1.55839,-3.32581 v 3.32581 h -0.88636 v -5.21758 h 0.88636 l 1.55839,3.33375 v -3.33375 z m 4.26508,0.51594 -0.59002,0.62177 c -0.24871,-0.21696 -0.54769,-0.34131 -0.87048,-0.34131 -0.82814,0 -1.50018,0.81227 -1.50018,1.81768 0,1.00278 0.67204,1.80711 1.50018,1.80711 0.32279,0 0.62177,-0.12436 0.87048,-0.33073 l 0.59002,0.61383 c -0.38893,0.33867 -0.88635,0.55563 -1.4605,0.55563 -1.44198,0 -2.38918,-1.33615 -2.38918,-2.64584 0,-1.30968 0.94456,-2.64583 2.38918,-2.64583 0.5715,0 1.06892,0.21431 1.4605,0.54769 z m 3.18559,-0.51594 v 0.7964 h -1.88384 v 1.68275 h 1.53459 v 0.79639 h -1.53459 v 1.14565 h 1.88384 v 0.79639 h -2.77019 v -5.21758 z m 55.38522,0 v 5.21758 h -0.87841 v -4.42118 h -0.24871 l 0.24871,-0.7964 z m 0.53182,4.56142 0.5715,-0.59796 c 0.1905,0.32279 0.56356,0.45508 0.87841,0.45508 0.59002,0 1.16152,-0.41539 1.16152,-1.39435 -0.23283,0.24077 -0.57943,0.43921 -1.02129,0.43921 -0.98689,0 -1.71714,-0.80434 -1.71714,-1.7489 0,-0.94456 0.73025,-1.74889 1.71714,-1.74889 1.41023,0 1.93146,1.37583 1.93146,2.64583 0,1.25942 -0.60589,2.64583 -2.07433,2.64583 -0.55298,0.003 -1.14829,-0.23019 -1.44727,-0.69585 z m 0.74612,-2.84427 c 0,0.53181 0.35719,0.92075 0.84667,0.92075 0.62971,0 0.92075,-0.40746 0.92075,-0.88636 0,-0.50535 -0.32279,-0.9525 -0.92075,-0.9525 -0.48948,-0.003 -0.84667,0.39688 -0.84667,0.91811 z m 6.34471,1.90764 c 0,0.87842 -0.75406,1.63513 -1.67481,1.63513 -0.92869,0 -1.68275,-0.75406 -1.68275,-1.63513 0,-0.49741 0.24077,-0.93662 0.62971,-1.21973 -0.28311,-0.24077 -0.45509,-0.59002 -0.45509,-0.98689 0,-0.78052 0.67204,-1.45256 1.51077,-1.45256 0.8308,0 1.50019,0.67204 1.50019,1.45256 0,0.39687 -0.17462,0.74612 -0.45508,0.98689 0.38629,0.28311 0.62706,0.72232 0.62706,1.21973 z m -2.47121,0 c 0,0.43921 0.35719,0.7964 0.7964,0.7964 0.43921,0 0.78846,-0.35719 0.78846,-0.7964 0,-0.43921 -0.34925,-0.79639 -0.78846,-0.79639 -0.43921,0 -0.7964,0.35718 -0.7964,0.79639 z m 0.17463,-2.20662 c 0,0.34131 0.27516,0.62177 0.62177,0.62177 0.34131,0 0.61383,-0.28311 0.61383,-0.62177 0,-0.33867 -0.27252,-0.62177 -0.61383,-0.62177 -0.34925,0 -0.62177,0.2831 -0.62177,0.62177 z m 5.1091,-1.41817 -1.53458,5.21758 h -0.87842 l 1.29381,-4.42118 h -1.94998 v -0.7964 z"
       fill="url(#SVGID_11_)"
       id="path922"
       style="fill:url(#SVGID_11_);stroke-width:0.264583" />
  </g>
</svg>
